\relax 
\@writefile{toc}{\contentsline {part}{I\hspace  {1em}DAM}{1}}
\@writefile{toc}{\contentsline {chapter}{\numberline {1}Introduccion a lenguaje de programaci\IeC {\'o}n}{5}}
\@writefile{lof}{\addvspace {10\p@ }}
\@writefile{lot}{\addvspace {10\p@ }}
\@writefile{toc}{\contentsline {section}{\numberline {1.1}Tipos de lenguajes}{5}}
\@writefile{toc}{\contentsline {section}{\numberline {1.2}Tipos de interpretes}{5}}
\@writefile{toc}{\contentsline {subsection}{\numberline {1.2.1}Ensamlbadores}{5}}
\@writefile{toc}{\contentsline {subsubsection}{Ensamblador Motorola}{5}}
\@writefile{toc}{\contentsline {paragraph}{1970-1990}{5}}
\@writefile{toc}{\contentsline {paragraph}{1990-2018}{5}}
\@writefile{toc}{\contentsline {subsubsection}{Ensamblador intel}{5}}
\@writefile{toc}{\contentsline {subsection}{\numberline {1.2.2}Interpretes}{5}}
\@writefile{toc}{\contentsline {subsection}{\numberline {1.2.3}Compiladores}{5}}
\@writefile{toc}{\contentsline {chapter}{\numberline {2}En proceso}{7}}
\@writefile{lof}{\addvspace {10\p@ }}
\@writefile{lot}{\addvspace {10\p@ }}
\@writefile{toc}{\contentsline {chapter}{\numberline {3}Introduccion a lenguaje de marcas}{9}}
\@writefile{lof}{\addvspace {10\p@ }}
\@writefile{lot}{\addvspace {10\p@ }}
